<?xml version="1.0" encoding="UTF-8" standalone="no"?>
<!-- Created with Inkscape (http://www.inkscape.org/) -->

<svg
   xmlns:dc="http://purl.org/dc/elements/1.1/"
   xmlns:cc="http://creativecommons.org/ns#"
   xmlns:rdf="http://www.w3.org/1999/02/22-rdf-syntax-ns#"
   xmlns:svg="http://www.w3.org/2000/svg"
   xmlns="http://www.w3.org/2000/svg"
   xmlns:sodipodi="http://sodipodi.sourceforge.net/DTD/sodipodi-0.dtd"
   xmlns:inkscape="http://www.inkscape.org/namespaces/inkscape"
   width="31.644922mm"
   height="31.05233mm"
   viewBox="0 0 31.644922 31.05233"
   version="1.1"
   id="svg8"
   inkscape:version="0.92.1 r15371"
   sodipodi:docname="ContactSuggestionLabel.svg">
  <defs
     id="defs2" />
  <sodipodi:namedview
     id="base"
     pagecolor="#ffffff"
     bordercolor="#666666"
     borderopacity="1.0"
     inkscape:pageopacity="0.0"
     inkscape:pageshadow="2"
     inkscape:zoom="0.35"
     inkscape:cx="-921.35267"
     inkscape:cy="-281.40614"
     inkscape:document-units="mm"
     inkscape:current-layer="layer1"
     showgrid="false"
     fit-margin-top="0"
     fit-margin-left="0"
     fit-margin-right="0"
     fit-margin-bottom="0"
     inkscape:window-width="1680"
     inkscape:window-height="1013"
     inkscape:window-x="1920"
     inkscape:window-y="0"
     inkscape:window-maximized="1" />
  <metadata
     id="metadata5">
    <rdf:RDF>
      <cc:Work
         rdf:about="">
        <dc:format>image/svg+xml</dc:format>
        <dc:type
           rdf:resource="http://purl.org/dc/dcmitype/StillImage" />
        <dc:title />
      </cc:Work>
    </rdf:RDF>
  </metadata>
  <g
     inkscape:label="Layer 1"
     inkscape:groupmode="layer"
     id="layer1"
     transform="translate(-47.226942,-46.349439)">
    <path
       sodipodi:type="star"
       id="path3680"
       sodipodi:sides="5"
       sodipodi:cx="61.988091"
       sodipodi:cy="62.654762"
       sodipodi:r1="8.0890436"
       sodipodi:r2="16.178087"
       sodipodi:arg1="0.9179497"
       sodipodi:arg2="1.5462682"
       inkscape:flatsided="false"
       inkscape:rounded="0.05"
       inkscape:randomized="0"
       d="m 66.901781,69.080357 c -0.426702,0.326302 -3.979908,9.734452 -4.516912,9.747626 -0.537004,0.01317 -4.54728,-9.209421 -4.989469,-9.514405 -0.442189,-0.304985 -10.487872,-0.777007 -10.666345,-1.283657 -0.178473,-0.50665 7.353493,-7.170588 7.506906,-7.68538 0.153414,-0.514792 -2.501953,-10.214668 -2.075252,-10.540969 0.426702,-0.326301 9.091989,4.777754 9.628993,4.76458 0.537003,-0.01317 8.94158,-5.536005 9.383769,-5.231021 0.442189,0.304985 -1.734335,10.123402 -1.555862,10.630052 0.178472,0.50665 8.028154,6.793229 7.87474,7.308021 -0.153414,0.514792 -10.163866,1.478852 -10.590568,1.805153 z"
       inkscape:transform-center-x="-0.82210702"
       inkscape:transform-center-y="-3.6014712"
       style="fill:#ffff00;stroke:#000000;stroke-width:2;stroke-miterlimit:4;stroke-dasharray:none"
       transform="rotate(31.934162,62.231582,65.487963)" />
  </g>
</svg>
