<?xml version="1.0" encoding="UTF-8" standalone="no"?>
<!-- Created with Inkscape (http://www.inkscape.org/) -->

<svg
   xmlns:dc="http://purl.org/dc/elements/1.1/"
   xmlns:cc="http://creativecommons.org/ns#"
   xmlns:rdf="http://www.w3.org/1999/02/22-rdf-syntax-ns#"
   xmlns:svg="http://www.w3.org/2000/svg"
   xmlns="http://www.w3.org/2000/svg"
   xmlns:xlink="http://www.w3.org/1999/xlink"
   xmlns:sodipodi="http://sodipodi.sourceforge.net/DTD/sodipodi-0.dtd"
   xmlns:inkscape="http://www.inkscape.org/namespaces/inkscape"
   width="48"
   height="40"
   id="svg2"
   sodipodi:version="0.32"
   inkscape:version="0.92.1 r15371"
   version="1.0"
   sodipodi:docname="ReplyGreen.svg"
   inkscape:output_extension="org.inkscape.output.svg.inkscape">
  <defs
     id="defs4">
    <linearGradient
       id="linearGradient2378">
      <stop
         id="stop2380"
         offset="0"
         style="stop-color:#ff0000;stop-opacity:1;" />
      <stop
         style="stop-color:#f52828;stop-opacity:1;"
         offset="0.5"
         id="stop2386" />
      <stop
         id="stop2382"
         offset="1"
         style="stop-color:#f52d2d;stop-opacity:0;" />
    </linearGradient>
    <linearGradient
       inkscape:collect="always"
       id="linearGradient6934">
      <stop
         style="stop-color:#babdb6;stop-opacity:1"
         offset="0"
         id="stop6936" />
      <stop
         style="stop-color:#babdb6;stop-opacity:0"
         offset="1"
         id="stop6938" />
    </linearGradient>
    <linearGradient
       id="linearGradient6945"
       inkscape:collect="always">
      <stop
         id="stop6947"
         offset="0"
         style="stop-color:#ffffff;stop-opacity:1" />
      <stop
         id="stop6949"
         offset="1"
         style="stop-color:#d3d7cf;stop-opacity:1" />
    </linearGradient>
    <linearGradient
       id="linearGradient7063"
       inkscape:collect="always">
      <stop
         id="stop7065"
         offset="0"
         style="stop-color:#000000;stop-opacity:1;" />
      <stop
         id="stop7067"
         offset="1"
         style="stop-color:#000000;stop-opacity:0;" />
    </linearGradient>
    <radialGradient
       inkscape:collect="always"
       xlink:href="#linearGradient6945"
       id="radialGradient11022"
       gradientUnits="userSpaceOnUse"
       gradientTransform="matrix(2.0135589,0,0,1.7460565,-13.669487,-10.185984)"
       cx="12.5"
       cy="15.927882"
       fx="12.5"
       fy="15.927882"
       r="18.5" />
    <linearGradient
       inkscape:collect="always"
       xlink:href="#linearGradient7063"
       id="linearGradient11024"
       gradientUnits="userSpaceOnUse"
       gradientTransform="translate(-1.0000014,-0.999999)"
       x1="12.875"
       y1="35.314098"
       x2="12.875"
       y2="15.75" />
    <radialGradient
       inkscape:collect="always"
       xlink:href="#linearGradient6945"
       id="radialGradient11026"
       gradientUnits="userSpaceOnUse"
       gradientTransform="matrix(2.6083242,0,0,2.218814,-74.941381,-118.61799)"
       cx="13.107393"
       cy="61.48016"
       fx="13.107393"
       fy="61.48016"
       r="18.5" />
    <linearGradient
       inkscape:collect="always"
       xlink:href="#linearGradient6934"
       id="linearGradient11028"
       gradientUnits="userSpaceOnUse"
       gradientTransform="translate(-1.4e-6,-42.999999)"
       x1="14.125"
       y1="79.81311"
       x2="14.125"
       y2="75.499176" />
    <radialGradient
       inkscape:collect="always"
       xlink:href="#linearGradient2378"
       id="radialGradient11030"
       gradientUnits="userSpaceOnUse"
       cx="38.658855"
       cy="9.3411446"
       fx="38.658855"
       fy="9.3411446"
       r="8.341651" />
    <filter
       inkscape:collect="always"
       x="-0.08625"
       width="1.1725"
       y="-0.11896552"
       height="1.237931"
       id="filter12483"
       color-interpolation-filters="sRGB">
      <feGaussianBlur
         inkscape:collect="always"
         stdDeviation="1.725"
         id="feGaussianBlur12485" />
    </filter>
    <radialGradient
       inkscape:collect="always"
       xlink:href="#linearGradient2378"
       id="radialGradient3035"
       gradientUnits="userSpaceOnUse"
       cx="38.658855"
       cy="9.3411446"
       fx="38.658855"
       fy="9.3411446"
       r="8.341651" />
  </defs>
  <sodipodi:namedview
     id="base"
     pagecolor="#ffffff"
     bordercolor="#666666"
     borderopacity="0.37647059"
     inkscape:pageopacity="0"
     inkscape:pageshadow="2"
     inkscape:zoom="8.6289191"
     inkscape:cx="-5.0064208"
     inkscape:cy="8.6453468"
     inkscape:document-units="px"
     inkscape:current-layer="layer1"
     width="48px"
     height="48px"
     inkscape:showpageshadow="false"
     inkscape:window-width="1680"
     inkscape:window-height="1013"
     inkscape:window-x="1600"
     inkscape:window-y="0"
     borderlayer="true"
     showgrid="false"
     inkscape:grid-points="true"
     showborder="true"
     showguides="true"
     inkscape:guide-bbox="false"
     inkscape:object-paths="false"
     inkscape:grid-bbox="true"
     inkscape:window-maximized="1">
    <inkscape:grid
       id="GridFromPre046Settings"
       type="xygrid"
       originx="0"
       originy="0"
       spacingx="0.5"
       spacingy="0.5"
       color="#3f3fff"
       empcolor="#3f3fff"
       opacity="0.15"
       empopacity="0.38"
       empspacing="2"
       visible="true"
       enabled="true"
       snapvisiblegridlinesonly="true" />
  </sodipodi:namedview>
  <metadata
     id="metadata7">
    <rdf:RDF>
      <cc:Work
         rdf:about="">
        <dc:format>image/svg+xml</dc:format>
        <dc:type
           rdf:resource="http://purl.org/dc/dcmitype/StillImage" />
        <dc:creator>
          <cc:Agent>
            <dc:title>Lapo Calamandrei</dc:title>
          </cc:Agent>
        </dc:creator>
        <cc:license
           rdf:resource="http://creativecommons.org/licenses/GPL/2.0/" />
        <dc:title></dc:title>
      </cc:Work>
      <cc:License
         rdf:about="http://creativecommons.org/licenses/GPL/2.0/">
        <cc:permits
           rdf:resource="http://web.resource.org/cc/Reproduction" />
        <cc:permits
           rdf:resource="http://web.resource.org/cc/Distribution" />
        <cc:requires
           rdf:resource="http://web.resource.org/cc/Notice" />
        <cc:permits
           rdf:resource="http://web.resource.org/cc/DerivativeWorks" />
        <cc:requires
           rdf:resource="http://web.resource.org/cc/ShareAlike" />
        <cc:requires
           rdf:resource="http://web.resource.org/cc/SourceCode" />
      </cc:License>
    </rdf:RDF>
  </metadata>
  <g
     inkscape:label="Livello 1"
     inkscape:groupmode="layer"
     id="layer1"
     transform="translate(0,-8)">
    <path
       sodipodi:type="inkscape:offset"
       inkscape:radius="2.0072105"
       inkscape:original="M 7.03125 11.5 C 6.1813674 11.5 5.5 12.181367 5.5 13.03125 L 5.5 34.96875 C 5.5 35.818633 6.1813677 36.5 7.03125 36.5 L 39.96875 36.5 C 40.818633 36.5 41.499999 35.818633 41.5 34.96875 L 41.5 13.03125 C 41.5 12.181367 40.818631 11.5 39.96875 11.5 L 7.03125 11.5 z "
       style="fill:#00ff00;fill-opacity:1;fill-rule:evenodd;stroke:none;filter:url(#filter12483)"
       id="path10994"
       d="M 7.03125,9.5 C 5.1085549,9.5 3.5,11.108554 3.5,13.03125 l 0,21.9375 C 3.5,36.891446 5.1085548,38.5 7.03125,38.5 l 32.9375,0 c 1.922695,0 3.531248,-1.608558 3.53125,-3.53125 l 0,-21.9375 C 43.5,11.108552 41.891446,9.5 39.96875,9.5 l -32.9375,0 z"
       transform="translate(0.5,4)" />
    <g
       id="g10996"
       transform="translate(0.50000143,4)">
      <rect
         ry="1.5340841"
         rx="1.5340841"
         y="11.5"
         x="5.4999986"
         height="25"
         width="36"
         id="rect10998"
         style="fill:url(#radialGradient11022);fill-opacity:1;fill-rule:evenodd;stroke:#888a85;stroke-width:1;stroke-linecap:butt;stroke-linejoin:miter;stroke-miterlimit:4;stroke-opacity:0.99236642;stroke-dasharray:none;stroke-dashoffset:0.69999992" />
      <path
         inkscape:connector-curvature="0"
         sodipodi:nodetypes="cccccssscccccc"
         id="path11000"
         d="m 6.9062486,11.937501 c -0.549278,0 -0.96875,0.41947 -0.96875,0.96875 l 0,1.40625 9.0937504,11.59375 1.125,-1.25 c 0.469373,-0.469374 0.93435,-1.084984 1.96875,-1.5 1.0344,-0.415016 2.58364,-0.65625 5.375,-0.65625 2.780132,-1e-6 4.338454,0.241631 5.375,0.65625 1.036546,0.414619 1.498047,1.029297 1.96875,1.5 l 1.125,1.25 9.09375,-11.59375 0,-1.40625 c 0,-0.549278 -0.41947,-0.96875 -0.96875,-0.96875 l -33.1875004,0 z"
         style="opacity:0.23134329;fill:url(#linearGradient11024);fill-opacity:1;fill-rule:evenodd;stroke:none" />
      <path
         inkscape:connector-curvature="0"
         sodipodi:nodetypes="ccssscccccc"
         id="path11002"
         d="M 5.9999986,36.000001 16.156249,24.656251 c 0.469373,-0.469374 0.93435,-1.084984 1.96875,-1.5 1.0344,-0.415016 2.58364,-0.65625 5.375,-0.65625 2.780132,-1e-6 4.338454,0.241631 5.375,0.65625 1.036546,0.414619 1.498047,1.029297 1.96875,1.5 l 10.15625,11.34375 -10.15625,-10.34375 c -2.044007,-1.969594 -4.518247,-2.272157 -7.34375,-2.15625 -2.67085,0.04954 -5.464303,-3.3e-4 -7.34375,2.15625 L 5.9999986,36.000001 z"
         style="fill:#888a85;fill-opacity:1;fill-rule:evenodd;stroke:none" />
      <path
         inkscape:connector-curvature="0"
         sodipodi:nodetypes="ccccccccc"
         id="path11004"
         d="M 5.9999986,36.0215 16.156249,26.67775 c 1.879447,-2.15658 4.6729,-2.10671 7.34375,-2.15625 2.825503,-0.115907 5.299743,0.186656 7.34375,2.15625 l 10.15625,9.34375 -10.15625,-10.34375 c -2.044007,-1.969594 -4.518247,-2.272157 -7.34375,-2.15625 -2.67085,0.04954 -5.464303,-3.3e-4 -7.34375,2.15625 L 5.9999986,36.0215 z"
         style="fill:#ffffff;fill-opacity:1;fill-rule:evenodd;stroke:none" />
      <path
         transform="translate(48.999999,-0.999999)"
         d="m -42.09375,12.9375 c -0.549278,0 -0.96875,0.41947 -0.96875,0.96875 l 0,1.40625 10.875,10.875 c 0.527224,0.527225 0.810244,0.94182 1.65625,1.28125 0.846006,0.33943 2.296573,0.59375 5.03125,0.59375 2.723216,1e-6 4.181791,-0.253966 5.03125,-0.59375 0.849459,-0.339784 1.130208,-0.755208 1.65625,-1.28125 l 10.875,-10.875 0,-1.40625 c 0,-0.549278 -0.4194702,-0.96875 -0.96875,-0.96875 l -33.1875,0 z"
         id="path11006"
         style="fill:url(#radialGradient11026);fill-opacity:1;fill-rule:evenodd;stroke:none"
         inkscape:original="M -42.09375 12.5 C -42.877224 12.5 -43.5 13.122774 -43.5 13.90625 L -43.5 15.5 L -32.5 26.5 C -31.5 27.500002 -31.022703 28.5 -25.5 28.5 C -20 28.500002 -19.5 27.5 -18.5 26.5 L -7.5 15.5 L -7.5 13.90625 C -7.5 13.122776 -8.122774 12.5 -8.90625 12.5 L -42.09375 12.5 z "
         inkscape:radius="-0.44194174"
         sodipodi:type="inkscape:offset" />
      <path
         inkscape:connector-curvature="0"
         sodipodi:nodetypes="ccssscccccc"
         id="path11008"
         d="m 5.9999986,14.500001 10.1562504,11.34375 c 0.469373,0.469374 0.93435,1.084984 1.96875,1.5 1.0344,0.415016 2.58364,0.65625 5.375,0.65625 2.780132,10e-7 4.338454,-0.241631 5.375,-0.65625 1.036546,-0.414619 1.498047,-1.029297 1.96875,-1.5 l 10.15625,-11.34375 -10.15625,10.34375 c -2.044007,1.969594 -4.518247,2.272157 -7.34375,2.15625 -2.67085,-0.04954 -5.464303,3.3e-4 -7.34375,-2.15625 L 5.9999986,14.500001 z"
         style="fill:#888a85;fill-opacity:1;fill-rule:evenodd;stroke:none" />
      <path
         inkscape:connector-curvature="0"
         sodipodi:nodetypes="ccccccccc"
         id="path11010"
         d="m 5.9999986,14.500001 10.1562504,9.34375 c 1.879447,2.15658 4.6729,2.10671 7.34375,2.15625 2.825503,0.115907 5.299743,-0.186656 7.34375,-2.15625 l 10.15625,-9.34375 -10.15625,10.34375 c -2.044007,1.969594 -4.518247,2.272157 -7.34375,2.15625 -2.67085,-0.04954 -5.464303,3.3e-4 -7.34375,-2.15625 L 5.9999986,14.500001 z"
         style="fill:#ffffff;fill-opacity:1;fill-rule:evenodd;stroke:none" />
      <path
         transform="translate(-1.4e-6,-42.999999)"
         d="M 6.90625,55.5 C 6.6497165,55.5 6.5,55.649715 6.5,55.90625 l 0,22.1875 c 0,0.256531 0.1497152,0.406249 0.40625,0.40625 l 33.1875,0 C 40.350281,78.5 40.5,78.350281 40.5,78.09375 l 0,-22.1875 C 40.5,55.649717 40.350284,55.5 40.09375,55.5 l -33.1875,0 z"
         id="path11012"
         style="opacity:0.7;fill:none;stroke:#ffffff;stroke-width:0.99999988;stroke-linecap:butt;stroke-linejoin:round;stroke-miterlimit:4;stroke-opacity:0.99236642;stroke-dasharray:none;stroke-dashoffset:0.69999992"
         inkscape:original="M 6.90625 54.5 C 6.1227756 54.5 5.5 55.122774 5.5 55.90625 L 5.5 78.09375 C 5.5 78.877224 6.1227756 79.499998 6.90625 79.5 L 40.09375 79.5 C 40.877224 79.5 41.5 78.877224 41.5 78.09375 L 41.5 55.90625 C 41.5 55.122776 40.877226 54.5 40.09375 54.5 L 6.90625 54.5 z "
         inkscape:radius="-0.99436891"
         sodipodi:type="inkscape:offset" />
      <path
         inkscape:connector-curvature="0"
         sodipodi:nodetypes="ccccccc"
         id="path11014"
         d="m 5.9999986,31.906251 0,3.1875 c 0,0.521007 0.385241,0.906249 0.90625,0.90625 l 33.1875004,0 c 0.52101,0 0.90625,-0.385243 0.90625,-0.90625 l 0,-3.1875 -35.0000004,0 z"
         style="opacity:0.55597014;fill:url(#linearGradient11028);fill-opacity:1;fill-rule:evenodd;stroke:none" />
    </g>
    <text
       xml:space="preserve"
       style="font-style:normal;font-weight:normal;line-height:0%;font-family:sans-serif;letter-spacing:0px;word-spacing:0px;fill:#00ff00;fill-opacity:1;stroke:#000000;stroke-width:1;stroke-miterlimit:4;stroke-dasharray:none;stroke-opacity:1;"
       x="13.477539"
       y="37.112549"
       id="text3830"><tspan
         sodipodi:role="line"
         id="tspan3832"
         x="13.477539"
         y="37.112549"
         style="font-style:normal;font-weight:bold;font-size:25px;line-height:1.25;font-family:sans-serif;-inkscape-font-specification:'Sans Bold';fill:#00ff00;stroke:#000000;stroke-width:1;stroke-miterlimit:4;stroke-dasharray:none;stroke-opacity:1;">R</tspan></text>
  </g>
</svg>
